{
  "meta" : {
    "title" : "Hello",
    "keywords" : "World",
    "description" : "Small"
  },
  "externalScripts" : [],
  "externalStyles" : [],
  "blocks" : [
    "header",
    "travel",
    "banner",
    "slide",
    "popular",
    "main",
    "follow",
    "bottom",
    "footer",
    "partners",
    "modals"
  ],
  "modules" : [
    "navigation",
    "social",
    "travelMenu",
    "travelReservation",
    "banner",
    "slide",
    "popular",
    "aboutUs",
    "follow",
    "comments",
    "social",
    "siteMap",
    "footer",
    "partners",
    "modals"
  ],
  "plugins" : [
    "forms",
    "logo",
    "search",
    "user",
    "order",
    "passengers"
  ],
  "view" : {
    "header" : ["navigation"],
    "travel" : ["travelMenu","travelReservation"],
    "banner" : ["banner"],
    "slide" : ["slide"],
    "popular" : ["popular"],
    "main" : ["aboutUs"],
    "follow" : ["follow"],
    "bottom" : ["comments","siteMap","social"],
    "footer" : ["footer"],
    "partners" : ["partners"],
    "modals" : ["modals"]
  },
  "routes" : []
}