{
  "passengers":
  [
    {
      "data":"1",
      "id":"adult",
      "value":"Взрослые от 12л.",
      "min":"1",
      "max":"9",
      "step":"1",
      "count":"1"
    },
    {
      "data":"2",
      "id":"young",
      "value":"Дети до 12л.",
      "min":"0",
      "max":"6",
      "step":"1",
      "count":"0"
    },
    {
      "data":"3",
      "id":"children",
      "value":"Младенцы до 2л.",
      "min":"0",
      "max":"2",
      "step":"1",
      "count":"0"
    }
  ]
}