{
  "meta" : {
    "title" : "Hello",
    "keywords" : "World",
    "description" : "Small"
  },
  "externalScripts" : [],
  "externalStyles" : [],
  "blocks" : [
    "header",
    "main",
    "footerTravel",
    "bottom",
    "footer",
    "partners",
    "modals"
  ],
  "modules" : [
    "navigation",
    "social",
    "pages",
    "travelMenu",
    "travelReservation",
    "social",
    "siteMap",
    "footer",
    "partners",
    "modals"
  ],
  "plugins" : [
    "forms",
    "logo",
    "search",
    "user",
    "order",
    "editor",
    "passengers"
  ],
  "view" : {
    "header" : ["navigation"],
    "main" : ["pages"],
    "footerTravel" : ["travelMenu","travelReservation"],
    "bottom" : ["siteMap","social"],
    "footer" : ["footer"],
    "partners" : ["partners"],
    "modals" : ["modals"]
  },
  "routes" : []
}