{
  "configType":"external",
  "dataType" : "json",
  "searches": [
    {
      "blockClass": "input_small",
      "id": "destinationCountry",
      "type":"text",
      "class": "input_text input",
      "icon": "fa fa-map-marker",
      "title": "Страна",
      "activity": "autoComplete",
      "data": false,
      "inner": false
    },
    {
      "blockClass": "input_small",
      "id": "destinationCity",
      "type":"text",
      "class": "input_text input",
      "icon": "fa fa-map-marker",
      "title": "Город",
      "activity": "autoComplete",
      "data": false,
      "inner": false
    },
    {
      "blockClass": "input_small",
      "id": "destinationPlace",
      "type":"text",
      "class": "input_text input",
      "icon": "fa fa-map-marker",
      "title": "Место",
      "activity": "autoComplete",
      "data": false,
      "inner": false
    },
    {
      "blockClass": "input_smallest",
      "id": "dateFrom",
      "type":"text",
      "class": "input_text input",
      "icon": "fa fa-calendar-o",
      "title": "Дата",
      "activity": "datePicker",
      "data": false,
      "inner": false
    },
    {
      "blockClass": "input_smallest",
      "id": "timeFrom",
      "type":"text",
      "class": "input_text input",
      "icon": "fa fa-hourglass-start",
      "title": "Время",
      "activity": "picker",
      "data": false,
      "inner": false
    }
  ],
  "submit":{
    "id": "submit",
    "class": "search_button",
    "icon": "fa fa fa-search",
    "title": "Найти"
  }
}